…
This plot took me a really long time - it is not like the simpler ggplots we have done before using life expectancy, as now we have to use the columns for the countries (Canada, Indonesia) and not just the general life expectancy column and select for Canada and Indonesia.

However, I think the graph shows the information pretty well: Canada has always had a relatively high life expectancy, and it has been slowly increasing with time. Indonesia, on the other hand, had a very low life expectancy of 37.5 years in 1952, but we have seen the life expectancy rise at a faster rate over time.

(this is not correct)

``` r
lifeExp_CI <- gapminder %>% 
    filter(country %in% c("Canada", "Indonesia")) %>% 
  select(country, year, lifeExp)

lifeExp_CI
```

    ## # A tibble: 24 x 3
    ##    country  year lifeExp
    ##     <fctr> <int>   <dbl>
    ##  1  Canada  1952   68.75
    ##  2  Canada  1957   69.96
    ##  3  Canada  1962   71.30
    ##  4  Canada  1967   72.13
    ##  5  Canada  1972   72.88
    ##  6  Canada  1977   74.21
    ##  7  Canada  1982   75.76
    ##  8  Canada  1987   76.86
    ##  9  Canada  1992   77.95
    ## 10  Canada  1997   78.61
    ## # ... with 14 more rows
…
