…
Cool, now we can see the output of our reordered factors selecting for minimum life expectancy.

Common Part
===========

Characterize the derived data before and after your factor re-leveling. Exploring effects of reordering a factor and factor reordering coupled with `arrange()`.

To see how our countries are organized (most likely alphebetically):

``` r
min_lifeExp %>% 
  group_by(country)
```

    ## # A tibble: 72 x 3
    ## # Groups:   country [6]
    ##     year     country lifeExp
    ##    <int>      <fctr>   <dbl>
    ##  1  1952 Afghanistan  28.801
    ##  2  1957 Afghanistan  30.332
    ##  3  1962 Afghanistan  31.997
    ##  4  1967 Afghanistan  34.020
    ##  5  1972 Afghanistan  36.088
    ##  6  1977 Afghanistan  38.438
    ##  7  1982 Afghanistan  39.854
    ##  8  1987 Afghanistan  40.822
    ##  9  1992 Afghanistan  41.674
    ## 10  1997 Afghanistan  41.763
    ## # ... with 62 more rows
…
