hw03_ggplot_dplyr
…
Though this also isnt super aesthetically pleasing, I think this tells us the information we want to know. We can see that Asia has the highest standard deviation of all the continents, likely due to the presence of extremely wealthy nations such as Kuwait and Saudi Arabia, as well as very poor nations. Africa has the lowest standard deviation.

What I found interesting was Oceania, which has the second-lowest standard deviation and the highest average GDP per capita of all the continents. Im not sure why this is. I know Australia and New Zealand will have relatively high GDPs per capita, however Im not sure how much the smaller nations such as Tonga, Samoa, Vanuatu etc would have a high GDP per capita - perhaps its due to their small populations? Something to look into further.

Task 3: Find out how life expectancy is changing with time on different continents

For this task, first I will select the relevant variables (continent, year and life expectancy) from the gapminder dataset, and then group the results by continent to see how life expectancy is changing over time.

task3 <- gapminder %>%
    select(continent, year, lifeExp) %>%
    group_by(continent, year)
task3

## # A tibble: 1,704 x 3
## # Groups:   continent, year [60]
##    continent  year lifeExp
##       <fctr> <int>   <dbl>
##  1      Asia  1952  28.801
##  2      Asia  1957  30.332
##  3      Asia  1962  31.997
##  4      Asia  1967  34.020
##  5      Asia  1972  36.088
##  6      Asia  1977  38.438
##  7      Asia  1982  39.854
##  8      Asia  1987  40.822
##  9      Asia  1992  41.674
## 10      Asia  1997  41.763
## # ... with 1,694 more rows
…
Yes, this outlier does correspond to Rwanda, shortly after the RPF invasion sparks a civil war. Over 800000 Tutsi and Hutu sympathizers were killed during this period, the Rwandan Genocide. From the brief reading I have done, it seems like most of these killings occured a bit later than this outlier - around 1994-1996, however there were tensions and clashes in the years leading up to the genocide. The Gapminder dataset doesnt have information for years between 1992-2000, so this result makes sense.

Task 4: Investigating out of interest: Impact of HIV/AIDS epidemic in Sub-Saharan Africa vs Northern Africa

Im interested in comparing the GDP per capita and life expectancies of two regions of Africa, differently affected by HIV/AIDS. Sub-Saharan Africa is now the worst-affected region in the world, and I will look specifically at Swaziland, Lesotho, Botswana, South Africa and Zimbabwe. North Africa, in contrast, has very low HIV/AIDS rates - I will look specifically at Algeria, Tunisia, Egypt, Morocco and Sudan.

What I hope to do is graph the Northern African countries separately to the Sub-Saharan African countries so we can evaluate general trends. I will need to use facetting for this.

task4a <- gapminder %>% 
    select(country, year, lifeExp) %>% 
  filter(country %in% c("", "Swaziland", "Lesotho", "Botswana", "South Africa", "Zimbabwe"), year <=2015, year >= 1960)
task4a

## # A tibble: 50 x 3
##     country  year lifeExp
##      <fctr> <int>   <dbl>
##  1 Botswana  1962  51.520
##  2 Botswana  1967  53.298
##  3 Botswana  1972  56.024
##  4 Botswana  1977  59.319
##  5 Botswana  1982  61.484
##  6 Botswana  1987  63.622
##  7 Botswana  1992  62.745
##  8 Botswana  1997  52.556
##  9 Botswana  2002  46.634
## 10 Botswana  2007  50.728
## # ... with 40 more rows
…
This is very interesting - for each country worst affected by HIV/AIDS we can see a sharp decline in life expectancies all occuring between 1985-1990. **MOre info about epidemic with links). Something promising is the upwards trend seen in Botswana and Zimbabwe.

Now to look at Northern Africa:

task4b <- gapminder %>% 
    select(country, year, lifeExp) %>% 
  filter(country %in% c("", "Algeria", "Tunisia", "Egypt", "Morocco", "Sudan"), year <=2015, year >= 1960)
task4b

## # A tibble: 50 x 3
##    country  year lifeExp
##     <fctr> <int>   <dbl>
##  1 Algeria  1962  48.303
##  2 Algeria  1967  51.407
##  3 Algeria  1972  54.518
##  4 Algeria  1977  58.014
##  5 Algeria  1982  61.368
##  6 Algeria  1987  65.799
##  7 Algeria  1992  67.744
##  8 Algeria  1997  69.152
##  9 Algeria  2002  70.994
## 10 Algeria  2007  72.301
## # ... with 40 more rows
…
summary(gapminder$lifeExp)

##    Min. 1st Qu.  Median    Mean 3rd Qu.    Max. 
##   23.60   48.20   60.71   59.47   70.85   82.60

We can see that the mean life expectancy of this dataset is 59.47. I will just use 60 for the sake of ease (and also because my mom just turned 60 and its interesting to think about our own lives in different contexts). Now I will try to determine how many countries within each continent has an average life expectancy lower than the global average of 60.

task5 <- gapminder %>% 
  group_by(continent, year) %>% 
  filter(lifeExp <= 60) %>% 
  summarize(number = length(country))
task5

## # A tibble: 41 x 3
## # Groups:   continent [?]
##    continent  year number
##       <fctr> <int>  <int>
##  1    Africa  1952     52
##  2    Africa  1957     52
##  3    Africa  1962     51
##  4    Africa  1967     50
##  5    Africa  1972     50
##  6    Africa  1977     50
##  7    Africa  1982     44
##  8    Africa  1987     40
##  9    Africa  1992     39
## 10    Africa  1997     39
## # ... with 31 more rows
…
